^K:\SWINBURNE\2016\SEMESTER 2\GAMES PROGRAMMING\SPIKE 7\ZORKISHOO_2\ZORKISHOO_2\DEBUG\ABOUT.OBJ|K:\SWINBURNE\2016\SEMESTER 2\GAMES PROGRAMMING\SPIKE 7\ZORKISHOO_2\ZORKISHOO_2\DEBUG\ADVENTURE.OBJ|K:\SWINBURNE\2016\SEMESTER 2\GAMES PROGRAMMING\SPIKE 7\ZORKISHOO_2\ZORKISHOO_2\DEBUG\GAMEMAIN.OBJ|K:\SWINBURNE\2016\SEMESTER 2\GAMES PROGRAMMING\SPIKE 7\ZORKISHOO_2\ZORKISHOO_2\DEBUG\GAMEPLAY.OBJ|K:\SWINBURNE\2016\SEMESTER 2\GAMES PROGRAMMING\SPIKE 7\ZORKISHOO_2\ZORKISHOO_2\DEBUG\HALLOFAME.OBJ|K:\SWINBURNE\2016\SEMESTER 2\GAMES PROGRAMMING\SPIKE 7\ZORKISHOO_2\ZORKISHOO_2\DEBUG\HELP.OBJ|K:\SWINBURNE\2016\SEMESTER 2\GAMES PROGRAMMING\SPIKE 7\ZORKISHOO_2\ZORKISHOO_2\DEBUG\HIGHSCORE.OBJ|K:\SWINBURNE\2016\SEMESTER 2\GAMES PROGRAMMING\SPIKE 7\ZORKISHOO_2\ZORKISHOO_2\DEBUG\INVENTORY.OBJ|K:\SWINBURNE\2016\SEMESTER 2\GAMES PROGRAMMING\SPIKE 7\ZORKISHOO_2\ZORKISHOO_2\DEBUG\ITEM.OBJ|K:\SWINBURNE\2016\SEMESTER 2\GAMES PROGRAMMING\SPIKE 7\ZORKISHOO_2\ZORKISHOO_2\DEBUG\LOCATION.OBJ|K:\SWINBURNE\2016\SEMESTER 2\GAMES PROGRAMMING\SPIKE 7\ZORKISHOO_2\ZORKISHOO_2\DEBUG\MAINMENU.OBJ|K:\SWINBURNE\2016\SEMESTER 2\GAMES PROGRAMMING\SPIKE 7\ZORKISHOO_2\ZORKISHOO_2\DEBUG\PATH.OBJ|K:\SWINBURNE\2016\SEMESTER 2\GAMES PROGRAMMING\SPIKE 7\ZORKISHOO_2\ZORKISHOO_2\DEBUG\PLAYER.OBJ|K:\SWINBURNE\2016\SEMESTER 2\GAMES PROGRAMMING\SPIKE 7\ZORKISHOO_2\ZORKISHOO_2\DEBUG\SELECTADVENTURE.OBJ|K:\SWINBURNE\2016\SEMESTER 2\GAMES PROGRAMMING\SPIKE 7\ZORKISHOO_2\ZORKISHOO_2\DEBUG\SOURCE.OBJ|K:\SWINBURNE\2016\SEMESTER 2\GAMES PROGRAMMING\SPIKE 7\ZORKISHOO_2\ZORKISHOO_2\DEBUG\STATE.OBJ|K:\SWINBURNE\2016\SEMESTER 2\GAMES PROGRAMMING\SPIKE 7\ZORKISHOO_2\ZORKISHOO_2\DEBUG\STATEMANAGER.OBJ
K:\SWINBURNE\2016\SEMESTER 2\GAMES PROGRAMMING\SPIKE 7\ZORKISHOO_2\DEBUG\ZORKISHOO_2.ILK
K:\SWINBURNE\2016\SEMESTER 2\GAMES PROGRAMMING\SPIKE 7\ZORKISHOO_2\DEBUG\ZORKISHOO_2.EXE
K:\SWINBURNE\2016\SEMESTER 2\GAMES PROGRAMMING\SPIKE 7\ZORKISHOO_2\DEBUG\ZORKISHOO_2.PDB
^K:\SWINBURNE\2016\SEMESTER 2\GAMES PROGRAMMING\SPIKE 8.1\ZORKISHOO_2\ZORKISHOO_2\DEBUG\ABOUT.OBJ|K:\SWINBURNE\2016\SEMESTER 2\GAMES PROGRAMMING\SPIKE 8.1\ZORKISHOO_2\ZORKISHOO_2\DEBUG\ADVENTURE.OBJ|K:\SWINBURNE\2016\SEMESTER 2\GAMES PROGRAMMING\SPIKE 8.1\ZORKISHOO_2\ZORKISHOO_2\DEBUG\BAG.OBJ|K:\SWINBURNE\2016\SEMESTER 2\GAMES PROGRAMMING\SPIKE 8.1\ZORKISHOO_2\ZORKISHOO_2\DEBUG\COMMANDDOER.OBJ|K:\SWINBURNE\2016\SEMESTER 2\GAMES PROGRAMMING\SPIKE 8.1\ZORKISHOO_2\ZORKISHOO_2\DEBUG\COMMANDREADER.OBJ|K:\SWINBURNE\2016\SEMESTER 2\GAMES PROGRAMMING\SPIKE 8.1\ZORKISHOO_2\ZORKISHOO_2\DEBUG\GAMEMAIN.OBJ|K:\SWINBURNE\2016\SEMESTER 2\GAMES PROGRAMMING\SPIKE 8.1\ZORKISHOO_2\ZORKISHOO_2\DEBUG\GAMEPLAY.OBJ|K:\SWINBURNE\2016\SEMESTER 2\GAMES PROGRAMMING\SPIKE 8.1\ZORKISHOO_2\ZORKISHOO_2\DEBUG\HALLOFAME.OBJ|K:\SWINBURNE\2016\SEMESTER 2\GAMES PROGRAMMING\SPIKE 8.1\ZORKISHOO_2\ZORKISHOO_2\DEBUG\HELP.OBJ|K:\SWINBURNE\2016\SEMESTER 2\GAMES PROGRAMMING\SPIKE 8.1\ZORKISHOO_2\ZORKISHOO_2\DEBUG\HIGHSCORE.OBJ|K:\SWINBURNE\2016\SEMESTER 2\GAMES PROGRAMMING\SPIKE 8.1\ZORKISHOO_2\ZORKISHOO_2\DEBUG\INVENTORY.OBJ|K:\SWINBURNE\2016\SEMESTER 2\GAMES PROGRAMMING\SPIKE 8.1\ZORKISHOO_2\ZORKISHOO_2\DEBUG\ITEM.OBJ|K:\SWINBURNE\2016\SEMESTER 2\GAMES PROGRAMMING\SPIKE 8.1\ZORKISHOO_2\ZORKISHOO_2\DEBUG\LOCATION.OBJ|K:\SWINBURNE\2016\SEMESTER 2\GAMES PROGRAMMING\SPIKE 8.1\ZORKISHOO_2\ZORKISHOO_2\DEBUG\MAINMENU.OBJ|K:\SWINBURNE\2016\SEMESTER 2\GAMES PROGRAMMING\SPIKE 8.1\ZORKISHOO_2\ZORKISHOO_2\DEBUG\PATH.OBJ|K:\SWINBURNE\2016\SEMESTER 2\GAMES PROGRAMMING\SPIKE 8.1\ZORKISHOO_2\ZORKISHOO_2\DEBUG\PLAYER.OBJ|K:\SWINBURNE\2016\SEMESTER 2\GAMES PROGRAMMING\SPIKE 8.1\ZORKISHOO_2\ZORKISHOO_2\DEBUG\SELECTADVENTURE.OBJ|K:\SWINBURNE\2016\SEMESTER 2\GAMES PROGRAMMING\SPIKE 8.1\ZORKISHOO_2\ZORKISHOO_2\DEBUG\SETUPADVENTURE.OBJ|K:\SWINBURNE\2016\SEMESTER 2\GAMES PROGRAMMING\SPIKE 8.1\ZORKISHOO_2\ZORKISHOO_2\DEBUG\SOURCE.OBJ|K:\SWINBURNE\2016\SEMESTER 2\GAMES PROGRAMMING\SPIKE 8.1\ZORKISHOO_2\ZORKISHOO_2\DEBUG\STATE.OBJ|K:\SWINBURNE\2016\SEMESTER 2\GAMES PROGRAMMING\SPIKE 8.1\ZORKISHOO_2\ZORKISHOO_2\DEBUG\STATEMANAGER.OBJ
K:\SWINBURNE\2016\SEMESTER 2\GAMES PROGRAMMING\SPIKE 8.1\ZORKISHOO_2\DEBUG\ZORKISHOO_2.ILK
K:\SWINBURNE\2016\SEMESTER 2\GAMES PROGRAMMING\SPIKE 8.1\ZORKISHOO_2\DEBUG\ZORKISHOO_2.EXE
K:\SWINBURNE\2016\SEMESTER 2\GAMES PROGRAMMING\SPIKE 8.1\ZORKISHOO_2\DEBUG\ZORKISHOO_2.PDB
