^E:\SWINBURNE\2016\SEMESTER 2\GAMES PROGRAMMING\ZORKISHOO_2\ZORKISHOO_2\GAMEMAIN.CPP
/c /ZI /nologo /W3 /WX- /sdl /Od /Oy- /D WIN32 /D _DEBUG /D _CONSOLE /D _UNICODE /D UNICODE /Gm /EHsc /RTC1 /MDd /GS /fp:precise /Zc:wchar_t /Zc:forScope /Zc:inline /Fo"DEBUG\\" /Fd"DEBUG\VC140.PDB" /Gd /TP /analyze- E:\SWINBURNE\2016\SEMESTER 2\GAMES PROGRAMMING\ZORKISHOO_2\ZORKISHOO_2\GAMEMAIN.CPP
^E:\SWINBURNE\2016\SEMESTER 2\GAMES PROGRAMMING\ZORKISHOO_2\ZORKISHOO_2\SOURCE.CPP
/c /ZI /nologo /W3 /WX- /sdl /Od /Oy- /D WIN32 /D _DEBUG /D _CONSOLE /D _UNICODE /D UNICODE /Gm /EHsc /RTC1 /MDd /GS /fp:precise /Zc:wchar_t /Zc:forScope /Zc:inline /Fo"DEBUG\\" /Fd"DEBUG\VC140.PDB" /Gd /TP /analyze- E:\SWINBURNE\2016\SEMESTER 2\GAMES PROGRAMMING\ZORKISHOO_2\ZORKISHOO_2\SOURCE.CPP
^E:\SWINBURNE\2016\SEMESTER 2\GAMES PROGRAMMING\ZORKISHOO_2\ZORKISHOO_2\MAINMENU.CPP
/c /ZI /nologo /W3 /WX- /sdl /Od /Oy- /D WIN32 /D _DEBUG /D _CONSOLE /D _UNICODE /D UNICODE /Gm /EHsc /RTC1 /MDd /GS /fp:precise /Zc:wchar_t /Zc:forScope /Zc:inline /Fo"DEBUG\\" /Fd"DEBUG\VC140.PDB" /Gd /TP /analyze- E:\SWINBURNE\2016\SEMESTER 2\GAMES PROGRAMMING\ZORKISHOO_2\ZORKISHOO_2\MAINMENU.CPP
^E:\SWINBURNE\2016\SEMESTER 2\GAMES PROGRAMMING\ZORKISHOO_2\ZORKISHOO_2\STATE.CPP
/c /ZI /nologo /W3 /WX- /sdl /Od /Oy- /D WIN32 /D _DEBUG /D _CONSOLE /D _UNICODE /D UNICODE /Gm /EHsc /RTC1 /MDd /GS /fp:precise /Zc:wchar_t /Zc:forScope /Zc:inline /Fo"DEBUG\\" /Fd"DEBUG\VC140.PDB" /Gd /TP /analyze- E:\SWINBURNE\2016\SEMESTER 2\GAMES PROGRAMMING\ZORKISHOO_2\ZORKISHOO_2\STATE.CPP
^E:\SWINBURNE\2016\SEMESTER 2\GAMES PROGRAMMING\ZORKISHOO_2\ZORKISHOO_2\STATEMANAGER.CPP
/c /ZI /nologo /W3 /WX- /sdl /Od /Oy- /D WIN32 /D _DEBUG /D _CONSOLE /D _UNICODE /D UNICODE /Gm /EHsc /RTC1 /MDd /GS /fp:precise /Zc:wchar_t /Zc:forScope /Zc:inline /Fo"DEBUG\\" /Fd"DEBUG\VC140.PDB" /Gd /TP /analyze- E:\SWINBURNE\2016\SEMESTER 2\GAMES PROGRAMMING\ZORKISHOO_2\ZORKISHOO_2\STATEMANAGER.CPP
^E:\SWINBURNE\2016\SEMESTER 2\GAMES PROGRAMMING\ZORKISHOO_2\ZORKISHOO_2\ABOUT.CPP
/c /ZI /nologo /W3 /WX- /sdl /Od /Oy- /D WIN32 /D _DEBUG /D _CONSOLE /D _UNICODE /D UNICODE /Gm /EHsc /RTC1 /MDd /GS /fp:precise /Zc:wchar_t /Zc:forScope /Zc:inline /Fo"DEBUG\\" /Fd"DEBUG\VC140.PDB" /Gd /TP /analyze- E:\SWINBURNE\2016\SEMESTER 2\GAMES PROGRAMMING\ZORKISHOO_2\ZORKISHOO_2\ABOUT.CPP
^K:\SWINBURNE\2016\SEMESTER 2\GAMES PROGRAMMING\ZORKISHOO_2\ZORKISHOO_2\ABOUT.CPP
/c /ZI /nologo /W3 /WX- /sdl /Od /Oy- /D WIN32 /D _DEBUG /D _CONSOLE /D _UNICODE /D UNICODE /Gm /EHsc /RTC1 /MDd /GS /fp:precise /Zc:wchar_t /Zc:forScope /Zc:inline /Fo"DEBUG\\" /Fd"DEBUG\VC140.PDB" /Gd /TP /analyze- K:\SWINBURNE\2016\SEMESTER 2\GAMES PROGRAMMING\ZORKISHOO_2\ZORKISHOO_2\ABOUT.CPP
^K:\SWINBURNE\2016\SEMESTER 2\GAMES PROGRAMMING\ZORKISHOO_2\ZORKISHOO_2\GAMEMAIN.CPP
/c /ZI /nologo /W3 /WX- /sdl /Od /Oy- /D WIN32 /D _DEBUG /D _CONSOLE /D _UNICODE /D UNICODE /Gm /EHsc /RTC1 /MDd /GS /fp:precise /Zc:wchar_t /Zc:forScope /Zc:inline /Fo"DEBUG\\" /Fd"DEBUG\VC140.PDB" /Gd /TP /analyze- K:\SWINBURNE\2016\SEMESTER 2\GAMES PROGRAMMING\ZORKISHOO_2\ZORKISHOO_2\GAMEMAIN.CPP
^K:\SWINBURNE\2016\SEMESTER 2\GAMES PROGRAMMING\ZORKISHOO_2\ZORKISHOO_2\MAINMENU.CPP
/c /ZI /nologo /W3 /WX- /sdl /Od /Oy- /D WIN32 /D _DEBUG /D _CONSOLE /D _UNICODE /D UNICODE /Gm /EHsc /RTC1 /MDd /GS /fp:precise /Zc:wchar_t /Zc:forScope /Zc:inline /Fo"DEBUG\\" /Fd"DEBUG\VC140.PDB" /Gd /TP /analyze- K:\SWINBURNE\2016\SEMESTER 2\GAMES PROGRAMMING\ZORKISHOO_2\ZORKISHOO_2\MAINMENU.CPP
^K:\SWINBURNE\2016\SEMESTER 2\GAMES PROGRAMMING\ZORKISHOO_2\ZORKISHOO_2\SOURCE.CPP
/c /ZI /nologo /W3 /WX- /sdl /Od /Oy- /D WIN32 /D _DEBUG /D _CONSOLE /D _UNICODE /D UNICODE /Gm /EHsc /RTC1 /MDd /GS /fp:precise /Zc:wchar_t /Zc:forScope /Zc:inline /Fo"DEBUG\\" /Fd"DEBUG\VC140.PDB" /Gd /TP /analyze- K:\SWINBURNE\2016\SEMESTER 2\GAMES PROGRAMMING\ZORKISHOO_2\ZORKISHOO_2\SOURCE.CPP
^K:\SWINBURNE\2016\SEMESTER 2\GAMES PROGRAMMING\ZORKISHOO_2\ZORKISHOO_2\STATE.CPP
/c /ZI /nologo /W3 /WX- /sdl /Od /Oy- /D WIN32 /D _DEBUG /D _CONSOLE /D _UNICODE /D UNICODE /Gm /EHsc /RTC1 /MDd /GS /fp:precise /Zc:wchar_t /Zc:forScope /Zc:inline /Fo"DEBUG\\" /Fd"DEBUG\VC140.PDB" /Gd /TP /analyze- K:\SWINBURNE\2016\SEMESTER 2\GAMES PROGRAMMING\ZORKISHOO_2\ZORKISHOO_2\STATE.CPP
^K:\SWINBURNE\2016\SEMESTER 2\GAMES PROGRAMMING\ZORKISHOO_2\ZORKISHOO_2\STATEMANAGER.CPP
/c /ZI /nologo /W3 /WX- /sdl /Od /Oy- /D WIN32 /D _DEBUG /D _CONSOLE /D _UNICODE /D UNICODE /Gm /EHsc /RTC1 /MDd /GS /fp:precise /Zc:wchar_t /Zc:forScope /Zc:inline /Fo"DEBUG\\" /Fd"DEBUG\VC140.PDB" /Gd /TP /analyze- K:\SWINBURNE\2016\SEMESTER 2\GAMES PROGRAMMING\ZORKISHOO_2\ZORKISHOO_2\STATEMANAGER.CPP
^K:\SWINBURNE\2016\SEMESTER 2\GAMES PROGRAMMING\ZORKISHOO_2\ZORKISHOO_2\HALLOFAME.CPP
/c /ZI /nologo /W3 /WX- /sdl /Od /Oy- /D WIN32 /D _DEBUG /D _CONSOLE /D _UNICODE /D UNICODE /Gm /EHsc /RTC1 /MDd /GS /fp:precise /Zc:wchar_t /Zc:forScope /Zc:inline /Fo"DEBUG\\" /Fd"DEBUG\VC140.PDB" /Gd /TP /analyze- K:\SWINBURNE\2016\SEMESTER 2\GAMES PROGRAMMING\ZORKISHOO_2\ZORKISHOO_2\HALLOFAME.CPP
^K:\SWINBURNE\2016\SEMESTER 2\GAMES PROGRAMMING\ZORKISHOO_2\ZORKISHOO_2\HELP.CPP
/c /ZI /nologo /W3 /WX- /sdl /Od /Oy- /D WIN32 /D _DEBUG /D _CONSOLE /D _UNICODE /D UNICODE /Gm /EHsc /RTC1 /MDd /GS /fp:precise /Zc:wchar_t /Zc:forScope /Zc:inline /Fo"DEBUG\\" /Fd"DEBUG\VC140.PDB" /Gd /TP /analyze- K:\SWINBURNE\2016\SEMESTER 2\GAMES PROGRAMMING\ZORKISHOO_2\ZORKISHOO_2\HELP.CPP
^K:\SWINBURNE\2016\SEMESTER 2\GAMES PROGRAMMING\ZORKISHOO_2\ZORKISHOO_2\SELECTADVENTURE.CPP
/c /ZI /nologo /W3 /WX- /sdl /Od /Oy- /D WIN32 /D _DEBUG /D _CONSOLE /D _UNICODE /D UNICODE /Gm /EHsc /RTC1 /MDd /GS /fp:precise /Zc:wchar_t /Zc:forScope /Zc:inline /Fo"DEBUG\\" /Fd"DEBUG\VC140.PDB" /Gd /TP /analyze- K:\SWINBURNE\2016\SEMESTER 2\GAMES PROGRAMMING\ZORKISHOO_2\ZORKISHOO_2\SELECTADVENTURE.CPP
^K:\SWINBURNE\2016\SEMESTER 2\GAMES PROGRAMMING\ZORKISHOO_2\ZORKISHOO_2\GAMEPLAY.CPP
/c /ZI /nologo /W3 /WX- /sdl /Od /Oy- /D WIN32 /D _DEBUG /D _CONSOLE /D _UNICODE /D UNICODE /Gm /EHsc /RTC1 /MDd /GS /fp:precise /Zc:wchar_t /Zc:forScope /Zc:inline /Fo"DEBUG\\" /Fd"DEBUG\VC140.PDB" /Gd /TP /analyze- K:\SWINBURNE\2016\SEMESTER 2\GAMES PROGRAMMING\ZORKISHOO_2\ZORKISHOO_2\GAMEPLAY.CPP
^K:\SWINBURNE\2016\SEMESTER 2\GAMES PROGRAMMING\ZORKISHOO_2\ZORKISHOO_2\HIGHSCORE.CPP
/c /ZI /nologo /W3 /WX- /sdl /Od /Oy- /D WIN32 /D _DEBUG /D _CONSOLE /D _UNICODE /D UNICODE /Gm /EHsc /RTC1 /MDd /GS /fp:precise /Zc:wchar_t /Zc:forScope /Zc:inline /Fo"DEBUG\\" /Fd"DEBUG\VC140.PDB" /Gd /TP /analyze- K:\SWINBURNE\2016\SEMESTER 2\GAMES PROGRAMMING\ZORKISHOO_2\ZORKISHOO_2\HIGHSCORE.CPP
^K:\SWINBURNE\2016\SEMESTER 2\GAMES PROGRAMMING\SPIKE 5\ZORKISHOO_2\ZORKISHOO_2\ABOUT.CPP
/c /ZI /nologo /W3 /WX- /sdl /Od /Oy- /D WIN32 /D _DEBUG /D _CONSOLE /D _UNICODE /D UNICODE /Gm /EHsc /RTC1 /MDd /GS /fp:precise /Zc:wchar_t /Zc:forScope /Zc:inline /Fo"DEBUG\\" /Fd"DEBUG\VC140.PDB" /Gd /TP /analyze- K:\SWINBURNE\2016\SEMESTER 2\GAMES PROGRAMMING\SPIKE 5\ZORKISHOO_2\ZORKISHOO_2\ABOUT.CPP
^K:\SWINBURNE\2016\SEMESTER 2\GAMES PROGRAMMING\SPIKE 5\ZORKISHOO_2\ZORKISHOO_2\GAMEMAIN.CPP
/c /ZI /nologo /W3 /WX- /sdl /Od /Oy- /D WIN32 /D _DEBUG /D _CONSOLE /D _UNICODE /D UNICODE /Gm /EHsc /RTC1 /MDd /GS /fp:precise /Zc:wchar_t /Zc:forScope /Zc:inline /Fo"DEBUG\\" /Fd"DEBUG\VC140.PDB" /Gd /TP /analyze- K:\SWINBURNE\2016\SEMESTER 2\GAMES PROGRAMMING\SPIKE 5\ZORKISHOO_2\ZORKISHOO_2\GAMEMAIN.CPP
^K:\SWINBURNE\2016\SEMESTER 2\GAMES PROGRAMMING\SPIKE 5\ZORKISHOO_2\ZORKISHOO_2\GAMEPLAY.CPP
/c /ZI /nologo /W3 /WX- /sdl /Od /Oy- /D WIN32 /D _DEBUG /D _CONSOLE /D _UNICODE /D UNICODE /Gm /EHsc /RTC1 /MDd /GS /fp:precise /Zc:wchar_t /Zc:forScope /Zc:inline /Fo"DEBUG\\" /Fd"DEBUG\VC140.PDB" /Gd /TP /analyze- K:\SWINBURNE\2016\SEMESTER 2\GAMES PROGRAMMING\SPIKE 5\ZORKISHOO_2\ZORKISHOO_2\GAMEPLAY.CPP
^K:\SWINBURNE\2016\SEMESTER 2\GAMES PROGRAMMING\SPIKE 5\ZORKISHOO_2\ZORKISHOO_2\HALLOFAME.CPP
/c /ZI /nologo /W3 /WX- /sdl /Od /Oy- /D WIN32 /D _DEBUG /D _CONSOLE /D _UNICODE /D UNICODE /Gm /EHsc /RTC1 /MDd /GS /fp:precise /Zc:wchar_t /Zc:forScope /Zc:inline /Fo"DEBUG\\" /Fd"DEBUG\VC140.PDB" /Gd /TP /analyze- K:\SWINBURNE\2016\SEMESTER 2\GAMES PROGRAMMING\SPIKE 5\ZORKISHOO_2\ZORKISHOO_2\HALLOFAME.CPP
^K:\SWINBURNE\2016\SEMESTER 2\GAMES PROGRAMMING\SPIKE 5\ZORKISHOO_2\ZORKISHOO_2\HELP.CPP
/c /ZI /nologo /W3 /WX- /sdl /Od /Oy- /D WIN32 /D _DEBUG /D _CONSOLE /D _UNICODE /D UNICODE /Gm /EHsc /RTC1 /MDd /GS /fp:precise /Zc:wchar_t /Zc:forScope /Zc:inline /Fo"DEBUG\\" /Fd"DEBUG\VC140.PDB" /Gd /TP /analyze- K:\SWINBURNE\2016\SEMESTER 2\GAMES PROGRAMMING\SPIKE 5\ZORKISHOO_2\ZORKISHOO_2\HELP.CPP
^K:\SWINBURNE\2016\SEMESTER 2\GAMES PROGRAMMING\SPIKE 5\ZORKISHOO_2\ZORKISHOO_2\HIGHSCORE.CPP
/c /ZI /nologo /W3 /WX- /sdl /Od /Oy- /D WIN32 /D _DEBUG /D _CONSOLE /D _UNICODE /D UNICODE /Gm /EHsc /RTC1 /MDd /GS /fp:precise /Zc:wchar_t /Zc:forScope /Zc:inline /Fo"DEBUG\\" /Fd"DEBUG\VC140.PDB" /Gd /TP /analyze- K:\SWINBURNE\2016\SEMESTER 2\GAMES PROGRAMMING\SPIKE 5\ZORKISHOO_2\ZORKISHOO_2\HIGHSCORE.CPP
^K:\SWINBURNE\2016\SEMESTER 2\GAMES PROGRAMMING\SPIKE 5\ZORKISHOO_2\ZORKISHOO_2\MAINMENU.CPP
/c /ZI /nologo /W3 /WX- /sdl /Od /Oy- /D WIN32 /D _DEBUG /D _CONSOLE /D _UNICODE /D UNICODE /Gm /EHsc /RTC1 /MDd /GS /fp:precise /Zc:wchar_t /Zc:forScope /Zc:inline /Fo"DEBUG\\" /Fd"DEBUG\VC140.PDB" /Gd /TP /analyze- K:\SWINBURNE\2016\SEMESTER 2\GAMES PROGRAMMING\SPIKE 5\ZORKISHOO_2\ZORKISHOO_2\MAINMENU.CPP
^K:\SWINBURNE\2016\SEMESTER 2\GAMES PROGRAMMING\SPIKE 5\ZORKISHOO_2\ZORKISHOO_2\SELECTADVENTURE.CPP
/c /ZI /nologo /W3 /WX- /sdl /Od /Oy- /D WIN32 /D _DEBUG /D _CONSOLE /D _UNICODE /D UNICODE /Gm /EHsc /RTC1 /MDd /GS /fp:precise /Zc:wchar_t /Zc:forScope /Zc:inline /Fo"DEBUG\\" /Fd"DEBUG\VC140.PDB" /Gd /TP /analyze- K:\SWINBURNE\2016\SEMESTER 2\GAMES PROGRAMMING\SPIKE 5\ZORKISHOO_2\ZORKISHOO_2\SELECTADVENTURE.CPP
^K:\SWINBURNE\2016\SEMESTER 2\GAMES PROGRAMMING\SPIKE 5\ZORKISHOO_2\ZORKISHOO_2\SOURCE.CPP
/c /ZI /nologo /W3 /WX- /sdl /Od /Oy- /D WIN32 /D _DEBUG /D _CONSOLE /D _UNICODE /D UNICODE /Gm /EHsc /RTC1 /MDd /GS /fp:precise /Zc:wchar_t /Zc:forScope /Zc:inline /Fo"DEBUG\\" /Fd"DEBUG\VC140.PDB" /Gd /TP /analyze- K:\SWINBURNE\2016\SEMESTER 2\GAMES PROGRAMMING\SPIKE 5\ZORKISHOO_2\ZORKISHOO_2\SOURCE.CPP
^K:\SWINBURNE\2016\SEMESTER 2\GAMES PROGRAMMING\SPIKE 5\ZORKISHOO_2\ZORKISHOO_2\STATE.CPP
/c /ZI /nologo /W3 /WX- /sdl /Od /Oy- /D WIN32 /D _DEBUG /D _CONSOLE /D _UNICODE /D UNICODE /Gm /EHsc /RTC1 /MDd /GS /fp:precise /Zc:wchar_t /Zc:forScope /Zc:inline /Fo"DEBUG\\" /Fd"DEBUG\VC140.PDB" /Gd /TP /analyze- K:\SWINBURNE\2016\SEMESTER 2\GAMES PROGRAMMING\SPIKE 5\ZORKISHOO_2\ZORKISHOO_2\STATE.CPP
^K:\SWINBURNE\2016\SEMESTER 2\GAMES PROGRAMMING\SPIKE 5\ZORKISHOO_2\ZORKISHOO_2\STATEMANAGER.CPP
/c /ZI /nologo /W3 /WX- /sdl /Od /Oy- /D WIN32 /D _DEBUG /D _CONSOLE /D _UNICODE /D UNICODE /Gm /EHsc /RTC1 /MDd /GS /fp:precise /Zc:wchar_t /Zc:forScope /Zc:inline /Fo"DEBUG\\" /Fd"DEBUG\VC140.PDB" /Gd /TP /analyze- K:\SWINBURNE\2016\SEMESTER 2\GAMES PROGRAMMING\SPIKE 5\ZORKISHOO_2\ZORKISHOO_2\STATEMANAGER.CPP
