^K:\SWINBURNE\2016\SEMESTER 2\GAMES PROGRAMMING\SPIKE 7\ZORKISHOO_2\ZORKISHOO_2\ABOUT.CPP|K:\SWINBURNE\2016\SEMESTER 2\GAMES PROGRAMMING\SPIKE 7\ZORKISHOO_2\ZORKISHOO_2\ADVENTURE.CPP|K:\SWINBURNE\2016\SEMESTER 2\GAMES PROGRAMMING\SPIKE 7\ZORKISHOO_2\ZORKISHOO_2\GAMEMAIN.CPP|K:\SWINBURNE\2016\SEMESTER 2\GAMES PROGRAMMING\SPIKE 7\ZORKISHOO_2\ZORKISHOO_2\GAMEPLAY.CPP|K:\SWINBURNE\2016\SEMESTER 2\GAMES PROGRAMMING\SPIKE 7\ZORKISHOO_2\ZORKISHOO_2\HALLOFAME.CPP|K:\SWINBURNE\2016\SEMESTER 2\GAMES PROGRAMMING\SPIKE 7\ZORKISHOO_2\ZORKISHOO_2\HELP.CPP|K:\SWINBURNE\2016\SEMESTER 2\GAMES PROGRAMMING\SPIKE 7\ZORKISHOO_2\ZORKISHOO_2\HIGHSCORE.CPP|K:\SWINBURNE\2016\SEMESTER 2\GAMES PROGRAMMING\SPIKE 7\ZORKISHOO_2\ZORKISHOO_2\INVENTORY.CPP|K:\SWINBURNE\2016\SEMESTER 2\GAMES PROGRAMMING\SPIKE 7\ZORKISHOO_2\ZORKISHOO_2\ITEM.CPP|K:\SWINBURNE\2016\SEMESTER 2\GAMES PROGRAMMING\SPIKE 7\ZORKISHOO_2\ZORKISHOO_2\LOCATION.CPP|K:\SWINBURNE\2016\SEMESTER 2\GAMES PROGRAMMING\SPIKE 7\ZORKISHOO_2\ZORKISHOO_2\MAINMENU.CPP|K:\SWINBURNE\2016\SEMESTER 2\GAMES PROGRAMMING\SPIKE 7\ZORKISHOO_2\ZORKISHOO_2\PATH.CPP|K:\SWINBURNE\2016\SEMESTER 2\GAMES PROGRAMMING\SPIKE 7\ZORKISHOO_2\ZORKISHOO_2\PLAYER.CPP|K:\SWINBURNE\2016\SEMESTER 2\GAMES PROGRAMMING\SPIKE 7\ZORKISHOO_2\ZORKISHOO_2\SELECTADVENTURE.CPP|K:\SWINBURNE\2016\SEMESTER 2\GAMES PROGRAMMING\SPIKE 7\ZORKISHOO_2\ZORKISHOO_2\SOURCE.CPP|K:\SWINBURNE\2016\SEMESTER 2\GAMES PROGRAMMING\SPIKE 7\ZORKISHOO_2\ZORKISHOO_2\STATE.CPP|K:\SWINBURNE\2016\SEMESTER 2\GAMES PROGRAMMING\SPIKE 7\ZORKISHOO_2\ZORKISHOO_2\STATEMANAGER.CPP
K:\SWINBURNE\2016\SEMESTER 2\GAMES PROGRAMMING\SPIKE 7\ZORKISHOO_2\ZORKISHOO_2\DEBUG\VC140.PDB
K:\SWINBURNE\2016\SEMESTER 2\GAMES PROGRAMMING\SPIKE 7\ZORKISHOO_2\ZORKISHOO_2\DEBUG\VC140.IDB
K:\SWINBURNE\2016\SEMESTER 2\GAMES PROGRAMMING\SPIKE 7\ZORKISHOO_2\ZORKISHOO_2\DEBUG\ADVENTURE.OBJ
K:\SWINBURNE\2016\SEMESTER 2\GAMES PROGRAMMING\SPIKE 7\ZORKISHOO_2\ZORKISHOO_2\DEBUG\INVENTORY.OBJ
K:\SWINBURNE\2016\SEMESTER 2\GAMES PROGRAMMING\SPIKE 7\ZORKISHOO_2\ZORKISHOO_2\DEBUG\ITEM.OBJ
K:\SWINBURNE\2016\SEMESTER 2\GAMES PROGRAMMING\SPIKE 7\ZORKISHOO_2\ZORKISHOO_2\DEBUG\LOCATION.OBJ
K:\SWINBURNE\2016\SEMESTER 2\GAMES PROGRAMMING\SPIKE 7\ZORKISHOO_2\ZORKISHOO_2\DEBUG\PATH.OBJ
K:\SWINBURNE\2016\SEMESTER 2\GAMES PROGRAMMING\SPIKE 7\ZORKISHOO_2\ZORKISHOO_2\DEBUG\PLAYER.OBJ
K:\SWINBURNE\2016\SEMESTER 2\GAMES PROGRAMMING\SPIKE 7\ZORKISHOO_2\ZORKISHOO_2\DEBUG\STATE.OBJ
^K:\SWINBURNE\2016\SEMESTER 2\GAMES PROGRAMMING\SPIKE 7\ZORKISHOO_2\ZORKISHOO_2\ABOUT.CPP
K:\SWINBURNE\2016\SEMESTER 2\GAMES PROGRAMMING\SPIKE 7\ZORKISHOO_2\ZORKISHOO_2\DEBUG\VC140.PDB
^K:\SWINBURNE\2016\SEMESTER 2\GAMES PROGRAMMING\SPIKE 7\ZORKISHOO_2\ZORKISHOO_2\ADVENTURE.CPP
K:\SWINBURNE\2016\SEMESTER 2\GAMES PROGRAMMING\SPIKE 7\ZORKISHOO_2\ZORKISHOO_2\DEBUG\VC140.PDB
K:\SWINBURNE\2016\SEMESTER 2\GAMES PROGRAMMING\SPIKE 7\ZORKISHOO_2\ZORKISHOO_2\DEBUG\VC140.IDB
K:\SWINBURNE\2016\SEMESTER 2\GAMES PROGRAMMING\SPIKE 7\ZORKISHOO_2\ZORKISHOO_2\DEBUG\ADVENTURE.OBJ
^K:\SWINBURNE\2016\SEMESTER 2\GAMES PROGRAMMING\SPIKE 7\ZORKISHOO_2\ZORKISHOO_2\GAMEMAIN.CPP
K:\SWINBURNE\2016\SEMESTER 2\GAMES PROGRAMMING\SPIKE 7\ZORKISHOO_2\ZORKISHOO_2\DEBUG\VC140.PDB
^K:\SWINBURNE\2016\SEMESTER 2\GAMES PROGRAMMING\SPIKE 7\ZORKISHOO_2\ZORKISHOO_2\GAMEPLAY.CPP
K:\SWINBURNE\2016\SEMESTER 2\GAMES PROGRAMMING\SPIKE 7\ZORKISHOO_2\ZORKISHOO_2\DEBUG\VC140.PDB
^K:\SWINBURNE\2016\SEMESTER 2\GAMES PROGRAMMING\SPIKE 7\ZORKISHOO_2\ZORKISHOO_2\HALLOFAME.CPP
K:\SWINBURNE\2016\SEMESTER 2\GAMES PROGRAMMING\SPIKE 7\ZORKISHOO_2\ZORKISHOO_2\DEBUG\VC140.PDB
^K:\SWINBURNE\2016\SEMESTER 2\GAMES PROGRAMMING\SPIKE 7\ZORKISHOO_2\ZORKISHOO_2\HELP.CPP
K:\SWINBURNE\2016\SEMESTER 2\GAMES PROGRAMMING\SPIKE 7\ZORKISHOO_2\ZORKISHOO_2\DEBUG\VC140.PDB
^K:\SWINBURNE\2016\SEMESTER 2\GAMES PROGRAMMING\SPIKE 7\ZORKISHOO_2\ZORKISHOO_2\HIGHSCORE.CPP
K:\SWINBURNE\2016\SEMESTER 2\GAMES PROGRAMMING\SPIKE 7\ZORKISHOO_2\ZORKISHOO_2\DEBUG\VC140.PDB
^K:\SWINBURNE\2016\SEMESTER 2\GAMES PROGRAMMING\SPIKE 7\ZORKISHOO_2\ZORKISHOO_2\INVENTORY.CPP
K:\SWINBURNE\2016\SEMESTER 2\GAMES PROGRAMMING\SPIKE 7\ZORKISHOO_2\ZORKISHOO_2\DEBUG\VC140.PDB
^K:\SWINBURNE\2016\SEMESTER 2\GAMES PROGRAMMING\SPIKE 7\ZORKISHOO_2\ZORKISHOO_2\ITEM.CPP
K:\SWINBURNE\2016\SEMESTER 2\GAMES PROGRAMMING\SPIKE 7\ZORKISHOO_2\ZORKISHOO_2\DEBUG\VC140.PDB
^K:\SWINBURNE\2016\SEMESTER 2\GAMES PROGRAMMING\SPIKE 7\ZORKISHOO_2\ZORKISHOO_2\LOCATION.CPP
K:\SWINBURNE\2016\SEMESTER 2\GAMES PROGRAMMING\SPIKE 7\ZORKISHOO_2\ZORKISHOO_2\DEBUG\VC140.PDB
^K:\SWINBURNE\2016\SEMESTER 2\GAMES PROGRAMMING\SPIKE 7\ZORKISHOO_2\ZORKISHOO_2\MAINMENU.CPP
K:\SWINBURNE\2016\SEMESTER 2\GAMES PROGRAMMING\SPIKE 7\ZORKISHOO_2\ZORKISHOO_2\DEBUG\VC140.PDB
K:\SWINBURNE\2016\SEMESTER 2\GAMES PROGRAMMING\SPIKE 7\ZORKISHOO_2\ZORKISHOO_2\DEBUG\VC140.IDB
^K:\SWINBURNE\2016\SEMESTER 2\GAMES PROGRAMMING\SPIKE 7\ZORKISHOO_2\ZORKISHOO_2\PATH.CPP
K:\SWINBURNE\2016\SEMESTER 2\GAMES PROGRAMMING\SPIKE 7\ZORKISHOO_2\ZORKISHOO_2\DEBUG\VC140.PDB
^K:\SWINBURNE\2016\SEMESTER 2\GAMES PROGRAMMING\SPIKE 7\ZORKISHOO_2\ZORKISHOO_2\PLAYER.CPP
K:\SWINBURNE\2016\SEMESTER 2\GAMES PROGRAMMING\SPIKE 7\ZORKISHOO_2\ZORKISHOO_2\DEBUG\VC140.PDB
^K:\SWINBURNE\2016\SEMESTER 2\GAMES PROGRAMMING\SPIKE 7\ZORKISHOO_2\ZORKISHOO_2\SELECTADVENTURE.CPP
K:\SWINBURNE\2016\SEMESTER 2\GAMES PROGRAMMING\SPIKE 7\ZORKISHOO_2\ZORKISHOO_2\DEBUG\VC140.PDB
^K:\SWINBURNE\2016\SEMESTER 2\GAMES PROGRAMMING\SPIKE 7\ZORKISHOO_2\ZORKISHOO_2\SOURCE.CPP
K:\SWINBURNE\2016\SEMESTER 2\GAMES PROGRAMMING\SPIKE 7\ZORKISHOO_2\ZORKISHOO_2\DEBUG\VC140.PDB
^K:\SWINBURNE\2016\SEMESTER 2\GAMES PROGRAMMING\SPIKE 7\ZORKISHOO_2\ZORKISHOO_2\STATE.CPP
K:\SWINBURNE\2016\SEMESTER 2\GAMES PROGRAMMING\SPIKE 7\ZORKISHOO_2\ZORKISHOO_2\DEBUG\VC140.PDB
^K:\SWINBURNE\2016\SEMESTER 2\GAMES PROGRAMMING\SPIKE 7\ZORKISHOO_2\ZORKISHOO_2\STATEMANAGER.CPP
K:\SWINBURNE\2016\SEMESTER 2\GAMES PROGRAMMING\SPIKE 7\ZORKISHOO_2\ZORKISHOO_2\DEBUG\VC140.PDB
^K:\SWINBURNE\2016\SEMESTER 2\GAMES PROGRAMMING\SPIKE 7\ZORKISHOO_2\ZORKISHOO_2\ABOUT.CPP|K:\SWINBURNE\2016\SEMESTER 2\GAMES PROGRAMMING\SPIKE 7\ZORKISHOO_2\ZORKISHOO_2\GAMEMAIN.CPP|K:\SWINBURNE\2016\SEMESTER 2\GAMES PROGRAMMING\SPIKE 7\ZORKISHOO_2\ZORKISHOO_2\GAMEPLAY.CPP|K:\SWINBURNE\2016\SEMESTER 2\GAMES PROGRAMMING\SPIKE 7\ZORKISHOO_2\ZORKISHOO_2\HALLOFAME.CPP|K:\SWINBURNE\2016\SEMESTER 2\GAMES PROGRAMMING\SPIKE 7\ZORKISHOO_2\ZORKISHOO_2\HELP.CPP|K:\SWINBURNE\2016\SEMESTER 2\GAMES PROGRAMMING\SPIKE 7\ZORKISHOO_2\ZORKISHOO_2\HIGHSCORE.CPP|K:\SWINBURNE\2016\SEMESTER 2\GAMES PROGRAMMING\SPIKE 7\ZORKISHOO_2\ZORKISHOO_2\MAINMENU.CPP|K:\SWINBURNE\2016\SEMESTER 2\GAMES PROGRAMMING\SPIKE 7\ZORKISHOO_2\ZORKISHOO_2\SELECTADVENTURE.CPP|K:\SWINBURNE\2016\SEMESTER 2\GAMES PROGRAMMING\SPIKE 7\ZORKISHOO_2\ZORKISHOO_2\SOURCE.CPP|K:\SWINBURNE\2016\SEMESTER 2\GAMES PROGRAMMING\SPIKE 7\ZORKISHOO_2\ZORKISHOO_2\STATEMANAGER.CPP
K:\SWINBURNE\2016\SEMESTER 2\GAMES PROGRAMMING\SPIKE 7\ZORKISHOO_2\ZORKISHOO_2\DEBUG\VC140.PDB
K:\SWINBURNE\2016\SEMESTER 2\GAMES PROGRAMMING\SPIKE 7\ZORKISHOO_2\ZORKISHOO_2\DEBUG\VC140.IDB
K:\SWINBURNE\2016\SEMESTER 2\GAMES PROGRAMMING\SPIKE 7\ZORKISHOO_2\ZORKISHOO_2\DEBUG\ABOUT.OBJ
K:\SWINBURNE\2016\SEMESTER 2\GAMES PROGRAMMING\SPIKE 7\ZORKISHOO_2\ZORKISHOO_2\DEBUG\GAMEMAIN.OBJ
K:\SWINBURNE\2016\SEMESTER 2\GAMES PROGRAMMING\SPIKE 7\ZORKISHOO_2\ZORKISHOO_2\DEBUG\GAMEPLAY.OBJ
K:\SWINBURNE\2016\SEMESTER 2\GAMES PROGRAMMING\SPIKE 7\ZORKISHOO_2\ZORKISHOO_2\DEBUG\HALLOFAME.OBJ
K:\SWINBURNE\2016\SEMESTER 2\GAMES PROGRAMMING\SPIKE 7\ZORKISHOO_2\ZORKISHOO_2\DEBUG\HELP.OBJ
K:\SWINBURNE\2016\SEMESTER 2\GAMES PROGRAMMING\SPIKE 7\ZORKISHOO_2\ZORKISHOO_2\DEBUG\HIGHSCORE.OBJ
K:\SWINBURNE\2016\SEMESTER 2\GAMES PROGRAMMING\SPIKE 7\ZORKISHOO_2\ZORKISHOO_2\DEBUG\MAINMENU.OBJ
K:\SWINBURNE\2016\SEMESTER 2\GAMES PROGRAMMING\SPIKE 7\ZORKISHOO_2\ZORKISHOO_2\DEBUG\SELECTADVENTURE.OBJ
K:\SWINBURNE\2016\SEMESTER 2\GAMES PROGRAMMING\SPIKE 7\ZORKISHOO_2\ZORKISHOO_2\DEBUG\SOURCE.OBJ
K:\SWINBURNE\2016\SEMESTER 2\GAMES PROGRAMMING\SPIKE 7\ZORKISHOO_2\ZORKISHOO_2\DEBUG\STATEMANAGER.OBJ
^K:\SWINBURNE\2016\SEMESTER 2\GAMES PROGRAMMING\SPIKE 7\ZORKISHOO_2\ZORKISHOO_2\ABOUT.CPP|K:\SWINBURNE\2016\SEMESTER 2\GAMES PROGRAMMING\SPIKE 7\ZORKISHOO_2\ZORKISHOO_2\ADVENTURE.CPP|K:\SWINBURNE\2016\SEMESTER 2\GAMES PROGRAMMING\SPIKE 7\ZORKISHOO_2\ZORKISHOO_2\GAMEMAIN.CPP|K:\SWINBURNE\2016\SEMESTER 2\GAMES PROGRAMMING\SPIKE 7\ZORKISHOO_2\ZORKISHOO_2\GAMEPLAY.CPP|K:\SWINBURNE\2016\SEMESTER 2\GAMES PROGRAMMING\SPIKE 7\ZORKISHOO_2\ZORKISHOO_2\HALLOFAME.CPP|K:\SWINBURNE\2016\SEMESTER 2\GAMES PROGRAMMING\SPIKE 7\ZORKISHOO_2\ZORKISHOO_2\HELP.CPP|K:\SWINBURNE\2016\SEMESTER 2\GAMES PROGRAMMING\SPIKE 7\ZORKISHOO_2\ZORKISHOO_2\HIGHSCORE.CPP|K:\SWINBURNE\2016\SEMESTER 2\GAMES PROGRAMMING\SPIKE 7\ZORKISHOO_2\ZORKISHOO_2\MAINMENU.CPP|K:\SWINBURNE\2016\SEMESTER 2\GAMES PROGRAMMING\SPIKE 7\ZORKISHOO_2\ZORKISHOO_2\SELECTADVENTURE.CPP|K:\SWINBURNE\2016\SEMESTER 2\GAMES PROGRAMMING\SPIKE 7\ZORKISHOO_2\ZORKISHOO_2\SOURCE.CPP|K:\SWINBURNE\2016\SEMESTER 2\GAMES PROGRAMMING\SPIKE 7\ZORKISHOO_2\ZORKISHOO_2\STATEMANAGER.CPP
K:\SWINBURNE\2016\SEMESTER 2\GAMES PROGRAMMING\SPIKE 7\ZORKISHOO_2\ZORKISHOO_2\DEBUG\VC140.PDB
K:\SWINBURNE\2016\SEMESTER 2\GAMES PROGRAMMING\SPIKE 7\ZORKISHOO_2\ZORKISHOO_2\DEBUG\VC140.IDB
K:\SWINBURNE\2016\SEMESTER 2\GAMES PROGRAMMING\SPIKE 7\ZORKISHOO_2\ZORKISHOO_2\DEBUG\ABOUT.OBJ
K:\SWINBURNE\2016\SEMESTER 2\GAMES PROGRAMMING\SPIKE 7\ZORKISHOO_2\ZORKISHOO_2\DEBUG\GAMEMAIN.OBJ
K:\SWINBURNE\2016\SEMESTER 2\GAMES PROGRAMMING\SPIKE 7\ZORKISHOO_2\ZORKISHOO_2\DEBUG\GAMEPLAY.OBJ
K:\SWINBURNE\2016\SEMESTER 2\GAMES PROGRAMMING\SPIKE 7\ZORKISHOO_2\ZORKISHOO_2\DEBUG\HALLOFAME.OBJ
K:\SWINBURNE\2016\SEMESTER 2\GAMES PROGRAMMING\SPIKE 7\ZORKISHOO_2\ZORKISHOO_2\DEBUG\HELP.OBJ
K:\SWINBURNE\2016\SEMESTER 2\GAMES PROGRAMMING\SPIKE 7\ZORKISHOO_2\ZORKISHOO_2\DEBUG\HIGHSCORE.OBJ
K:\SWINBURNE\2016\SEMESTER 2\GAMES PROGRAMMING\SPIKE 7\ZORKISHOO_2\ZORKISHOO_2\DEBUG\MAINMENU.OBJ
K:\SWINBURNE\2016\SEMESTER 2\GAMES PROGRAMMING\SPIKE 7\ZORKISHOO_2\ZORKISHOO_2\DEBUG\SELECTADVENTURE.OBJ
K:\SWINBURNE\2016\SEMESTER 2\GAMES PROGRAMMING\SPIKE 7\ZORKISHOO_2\ZORKISHOO_2\DEBUG\SOURCE.OBJ
K:\SWINBURNE\2016\SEMESTER 2\GAMES PROGRAMMING\SPIKE 7\ZORKISHOO_2\ZORKISHOO_2\DEBUG\STATEMANAGER.OBJ
^K:\SWINBURNE\2016\SEMESTER 2\GAMES PROGRAMMING\SPIKE 7\ZORKISHOO_2\ZORKISHOO_2\ABOUT.CPP|K:\SWINBURNE\2016\SEMESTER 2\GAMES PROGRAMMING\SPIKE 7\ZORKISHOO_2\ZORKISHOO_2\ADVENTURE.CPP|K:\SWINBURNE\2016\SEMESTER 2\GAMES PROGRAMMING\SPIKE 7\ZORKISHOO_2\ZORKISHOO_2\GAMEMAIN.CPP|K:\SWINBURNE\2016\SEMESTER 2\GAMES PROGRAMMING\SPIKE 7\ZORKISHOO_2\ZORKISHOO_2\GAMEPLAY.CPP|K:\SWINBURNE\2016\SEMESTER 2\GAMES PROGRAMMING\SPIKE 7\ZORKISHOO_2\ZORKISHOO_2\HALLOFAME.CPP|K:\SWINBURNE\2016\SEMESTER 2\GAMES PROGRAMMING\SPIKE 7\ZORKISHOO_2\ZORKISHOO_2\HELP.CPP|K:\SWINBURNE\2016\SEMESTER 2\GAMES PROGRAMMING\SPIKE 7\ZORKISHOO_2\ZORKISHOO_2\HIGHSCORE.CPP|K:\SWINBURNE\2016\SEMESTER 2\GAMES PROGRAMMING\SPIKE 7\ZORKISHOO_2\ZORKISHOO_2\LOCATION.CPP|K:\SWINBURNE\2016\SEMESTER 2\GAMES PROGRAMMING\SPIKE 7\ZORKISHOO_2\ZORKISHOO_2\MAINMENU.CPP|K:\SWINBURNE\2016\SEMESTER 2\GAMES PROGRAMMING\SPIKE 7\ZORKISHOO_2\ZORKISHOO_2\SELECTADVENTURE.CPP|K:\SWINBURNE\2016\SEMESTER 2\GAMES PROGRAMMING\SPIKE 7\ZORKISHOO_2\ZORKISHOO_2\SOURCE.CPP|K:\SWINBURNE\2016\SEMESTER 2\GAMES PROGRAMMING\SPIKE 7\ZORKISHOO_2\ZORKISHOO_2\STATEMANAGER.CPP
K:\SWINBURNE\2016\SEMESTER 2\GAMES PROGRAMMING\SPIKE 7\ZORKISHOO_2\ZORKISHOO_2\DEBUG\VC140.PDB
K:\SWINBURNE\2016\SEMESTER 2\GAMES PROGRAMMING\SPIKE 7\ZORKISHOO_2\ZORKISHOO_2\DEBUG\VC140.IDB
K:\SWINBURNE\2016\SEMESTER 2\GAMES PROGRAMMING\SPIKE 7\ZORKISHOO_2\ZORKISHOO_2\DEBUG\ADVENTURE.OBJ
K:\SWINBURNE\2016\SEMESTER 2\GAMES PROGRAMMING\SPIKE 7\ZORKISHOO_2\ZORKISHOO_2\DEBUG\LOCATION.OBJ
K:\SWINBURNE\2016\SEMESTER 2\GAMES PROGRAMMING\SPIKE 7\ZORKISHOO_2\ZORKISHOO_2\DEBUG\ABOUT.OBJ
K:\SWINBURNE\2016\SEMESTER 2\GAMES PROGRAMMING\SPIKE 7\ZORKISHOO_2\ZORKISHOO_2\DEBUG\GAMEMAIN.OBJ
K:\SWINBURNE\2016\SEMESTER 2\GAMES PROGRAMMING\SPIKE 7\ZORKISHOO_2\ZORKISHOO_2\DEBUG\GAMEPLAY.OBJ
K:\SWINBURNE\2016\SEMESTER 2\GAMES PROGRAMMING\SPIKE 7\ZORKISHOO_2\ZORKISHOO_2\DEBUG\HALLOFAME.OBJ
K:\SWINBURNE\2016\SEMESTER 2\GAMES PROGRAMMING\SPIKE 7\ZORKISHOO_2\ZORKISHOO_2\DEBUG\HELP.OBJ
K:\SWINBURNE\2016\SEMESTER 2\GAMES PROGRAMMING\SPIKE 7\ZORKISHOO_2\ZORKISHOO_2\DEBUG\HIGHSCORE.OBJ
K:\SWINBURNE\2016\SEMESTER 2\GAMES PROGRAMMING\SPIKE 7\ZORKISHOO_2\ZORKISHOO_2\DEBUG\MAINMENU.OBJ
K:\SWINBURNE\2016\SEMESTER 2\GAMES PROGRAMMING\SPIKE 7\ZORKISHOO_2\ZORKISHOO_2\DEBUG\SELECTADVENTURE.OBJ
K:\SWINBURNE\2016\SEMESTER 2\GAMES PROGRAMMING\SPIKE 7\ZORKISHOO_2\ZORKISHOO_2\DEBUG\SOURCE.OBJ
K:\SWINBURNE\2016\SEMESTER 2\GAMES PROGRAMMING\SPIKE 7\ZORKISHOO_2\ZORKISHOO_2\DEBUG\STATEMANAGER.OBJ
^K:\SWINBURNE\2016\SEMESTER 2\GAMES PROGRAMMING\SPIKE 7\ZORKISHOO_2\ZORKISHOO_2\ABOUT.CPP|K:\SWINBURNE\2016\SEMESTER 2\GAMES PROGRAMMING\SPIKE 7\ZORKISHOO_2\ZORKISHOO_2\ADVENTURE.CPP|K:\SWINBURNE\2016\SEMESTER 2\GAMES PROGRAMMING\SPIKE 7\ZORKISHOO_2\ZORKISHOO_2\GAMEMAIN.CPP|K:\SWINBURNE\2016\SEMESTER 2\GAMES PROGRAMMING\SPIKE 7\ZORKISHOO_2\ZORKISHOO_2\GAMEPLAY.CPP|K:\SWINBURNE\2016\SEMESTER 2\GAMES PROGRAMMING\SPIKE 7\ZORKISHOO_2\ZORKISHOO_2\HALLOFAME.CPP|K:\SWINBURNE\2016\SEMESTER 2\GAMES PROGRAMMING\SPIKE 7\ZORKISHOO_2\ZORKISHOO_2\HELP.CPP|K:\SWINBURNE\2016\SEMESTER 2\GAMES PROGRAMMING\SPIKE 7\ZORKISHOO_2\ZORKISHOO_2\HIGHSCORE.CPP|K:\SWINBURNE\2016\SEMESTER 2\GAMES PROGRAMMING\SPIKE 7\ZORKISHOO_2\ZORKISHOO_2\MAINMENU.CPP|K:\SWINBURNE\2016\SEMESTER 2\GAMES PROGRAMMING\SPIKE 7\ZORKISHOO_2\ZORKISHOO_2\PATH.CPP|K:\SWINBURNE\2016\SEMESTER 2\GAMES PROGRAMMING\SPIKE 7\ZORKISHOO_2\ZORKISHOO_2\SELECTADVENTURE.CPP|K:\SWINBURNE\2016\SEMESTER 2\GAMES PROGRAMMING\SPIKE 7\ZORKISHOO_2\ZORKISHOO_2\SOURCE.CPP|K:\SWINBURNE\2016\SEMESTER 2\GAMES PROGRAMMING\SPIKE 7\ZORKISHOO_2\ZORKISHOO_2\STATEMANAGER.CPP
K:\SWINBURNE\2016\SEMESTER 2\GAMES PROGRAMMING\SPIKE 7\ZORKISHOO_2\ZORKISHOO_2\DEBUG\VC140.PDB
K:\SWINBURNE\2016\SEMESTER 2\GAMES PROGRAMMING\SPIKE 7\ZORKISHOO_2\ZORKISHOO_2\DEBUG\VC140.IDB
K:\SWINBURNE\2016\SEMESTER 2\GAMES PROGRAMMING\SPIKE 7\ZORKISHOO_2\ZORKISHOO_2\DEBUG\PATH.OBJ
K:\SWINBURNE\2016\SEMESTER 2\GAMES PROGRAMMING\SPIKE 7\ZORKISHOO_2\ZORKISHOO_2\DEBUG\ABOUT.OBJ
K:\SWINBURNE\2016\SEMESTER 2\GAMES PROGRAMMING\SPIKE 7\ZORKISHOO_2\ZORKISHOO_2\DEBUG\GAMEMAIN.OBJ
K:\SWINBURNE\2016\SEMESTER 2\GAMES PROGRAMMING\SPIKE 7\ZORKISHOO_2\ZORKISHOO_2\DEBUG\GAMEPLAY.OBJ
K:\SWINBURNE\2016\SEMESTER 2\GAMES PROGRAMMING\SPIKE 7\ZORKISHOO_2\ZORKISHOO_2\DEBUG\HALLOFAME.OBJ
K:\SWINBURNE\2016\SEMESTER 2\GAMES PROGRAMMING\SPIKE 7\ZORKISHOO_2\ZORKISHOO_2\DEBUG\HELP.OBJ
K:\SWINBURNE\2016\SEMESTER 2\GAMES PROGRAMMING\SPIKE 7\ZORKISHOO_2\ZORKISHOO_2\DEBUG\HIGHSCORE.OBJ
K:\SWINBURNE\2016\SEMESTER 2\GAMES PROGRAMMING\SPIKE 7\ZORKISHOO_2\ZORKISHOO_2\DEBUG\MAINMENU.OBJ
K:\SWINBURNE\2016\SEMESTER 2\GAMES PROGRAMMING\SPIKE 7\ZORKISHOO_2\ZORKISHOO_2\DEBUG\SELECTADVENTURE.OBJ
K:\SWINBURNE\2016\SEMESTER 2\GAMES PROGRAMMING\SPIKE 7\ZORKISHOO_2\ZORKISHOO_2\DEBUG\SOURCE.OBJ
K:\SWINBURNE\2016\SEMESTER 2\GAMES PROGRAMMING\SPIKE 7\ZORKISHOO_2\ZORKISHOO_2\DEBUG\STATEMANAGER.OBJ
^K:\SWINBURNE\2016\SEMESTER 2\GAMES PROGRAMMING\SPIKE 7\ZORKISHOO_2\ZORKISHOO_2\ABOUT.CPP|K:\SWINBURNE\2016\SEMESTER 2\GAMES PROGRAMMING\SPIKE 7\ZORKISHOO_2\ZORKISHOO_2\ADVENTURE.CPP|K:\SWINBURNE\2016\SEMESTER 2\GAMES PROGRAMMING\SPIKE 7\ZORKISHOO_2\ZORKISHOO_2\GAMEMAIN.CPP|K:\SWINBURNE\2016\SEMESTER 2\GAMES PROGRAMMING\SPIKE 7\ZORKISHOO_2\ZORKISHOO_2\GAMEPLAY.CPP|K:\SWINBURNE\2016\SEMESTER 2\GAMES PROGRAMMING\SPIKE 7\ZORKISHOO_2\ZORKISHOO_2\HALLOFAME.CPP|K:\SWINBURNE\2016\SEMESTER 2\GAMES PROGRAMMING\SPIKE 7\ZORKISHOO_2\ZORKISHOO_2\HELP.CPP|K:\SWINBURNE\2016\SEMESTER 2\GAMES PROGRAMMING\SPIKE 7\ZORKISHOO_2\ZORKISHOO_2\HIGHSCORE.CPP|K:\SWINBURNE\2016\SEMESTER 2\GAMES PROGRAMMING\SPIKE 7\ZORKISHOO_2\ZORKISHOO_2\MAINMENU.CPP|K:\SWINBURNE\2016\SEMESTER 2\GAMES PROGRAMMING\SPIKE 7\ZORKISHOO_2\ZORKISHOO_2\PLAYER.CPP|K:\SWINBURNE\2016\SEMESTER 2\GAMES PROGRAMMING\SPIKE 7\ZORKISHOO_2\ZORKISHOO_2\SELECTADVENTURE.CPP|K:\SWINBURNE\2016\SEMESTER 2\GAMES PROGRAMMING\SPIKE 7\ZORKISHOO_2\ZORKISHOO_2\SOURCE.CPP|K:\SWINBURNE\2016\SEMESTER 2\GAMES PROGRAMMING\SPIKE 7\ZORKISHOO_2\ZORKISHOO_2\STATEMANAGER.CPP
K:\SWINBURNE\2016\SEMESTER 2\GAMES PROGRAMMING\SPIKE 7\ZORKISHOO_2\ZORKISHOO_2\DEBUG\VC140.PDB
K:\SWINBURNE\2016\SEMESTER 2\GAMES PROGRAMMING\SPIKE 7\ZORKISHOO_2\ZORKISHOO_2\DEBUG\VC140.IDB
K:\SWINBURNE\2016\SEMESTER 2\GAMES PROGRAMMING\SPIKE 7\ZORKISHOO_2\ZORKISHOO_2\DEBUG\ADVENTURE.OBJ
K:\SWINBURNE\2016\SEMESTER 2\GAMES PROGRAMMING\SPIKE 7\ZORKISHOO_2\ZORKISHOO_2\DEBUG\PLAYER.OBJ
K:\SWINBURNE\2016\SEMESTER 2\GAMES PROGRAMMING\SPIKE 7\ZORKISHOO_2\ZORKISHOO_2\DEBUG\ABOUT.OBJ
K:\SWINBURNE\2016\SEMESTER 2\GAMES PROGRAMMING\SPIKE 7\ZORKISHOO_2\ZORKISHOO_2\DEBUG\GAMEMAIN.OBJ
K:\SWINBURNE\2016\SEMESTER 2\GAMES PROGRAMMING\SPIKE 7\ZORKISHOO_2\ZORKISHOO_2\DEBUG\GAMEPLAY.OBJ
K:\SWINBURNE\2016\SEMESTER 2\GAMES PROGRAMMING\SPIKE 7\ZORKISHOO_2\ZORKISHOO_2\DEBUG\HALLOFAME.OBJ
K:\SWINBURNE\2016\SEMESTER 2\GAMES PROGRAMMING\SPIKE 7\ZORKISHOO_2\ZORKISHOO_2\DEBUG\HELP.OBJ
K:\SWINBURNE\2016\SEMESTER 2\GAMES PROGRAMMING\SPIKE 7\ZORKISHOO_2\ZORKISHOO_2\DEBUG\HIGHSCORE.OBJ
K:\SWINBURNE\2016\SEMESTER 2\GAMES PROGRAMMING\SPIKE 7\ZORKISHOO_2\ZORKISHOO_2\DEBUG\MAINMENU.OBJ
K:\SWINBURNE\2016\SEMESTER 2\GAMES PROGRAMMING\SPIKE 7\ZORKISHOO_2\ZORKISHOO_2\DEBUG\SELECTADVENTURE.OBJ
K:\SWINBURNE\2016\SEMESTER 2\GAMES PROGRAMMING\SPIKE 7\ZORKISHOO_2\ZORKISHOO_2\DEBUG\SOURCE.OBJ
K:\SWINBURNE\2016\SEMESTER 2\GAMES PROGRAMMING\SPIKE 7\ZORKISHOO_2\ZORKISHOO_2\DEBUG\STATEMANAGER.OBJ
